mode,width,height,datalength,n_bins,n_images,threadcount_blocksize,runtime
0,128,128,16384,64,6600,16,14.502547
1,128,128,16384,64,6600,16,14.568460
2,128,128,16384,64,6600,16,14.529863
0,128,128,16384,64,6600,32,12.363537
1,128,128,16384,64,6600,32,13.496088
2,128,128,16384,64,6600,32,13.427884
0,128,128,16384,64,6600,64,12.036361
1,128,128,16384,64,6600,64,13.844301
2,128,128,16384,64,6600,64,13.687388
0,128,128,16384,64,6600,96,12.151919
1,128,128,16384,64,6600,96,13.700204
2,128,128,16384,64,6600,96,13.551975
0,128,128,16384,64,6600,128,12.239643
1,128,128,16384,64,6600,128,13.629395
2,128,128,16384,64,6600,128,13.551810
